{
    "componentChunkName": "component---src-pages-using-typescript-tsx",
    "path": "/using-typescript/",
    "result": {"data":{"site":{"buildTime":"2022-04-15 01:10 pm UTC"}},"pageContext":{}},
    "staticQueryHashes": ["3649515864","63159454"]}